Project 2: Data Mining, Classification, Prediction
…
Mining, Classification, Prediction

Aakash Reddy // AVR683

Introduction

These two datasets separately identify the air quality and mortality rates for 43 Metropolitan Statistical Areas (MSA). This relationship is important to study for those interested in public health research, particularly after increasing restrictions on the Environmental Protection Agency. In this dataset, the variables defining air quality are NOX (Nitrous Oxide Pollution Potential), and SOX (sulphur dioxide pollution potential), POPN (MSA Population), MORT(mortality rates per 100,000 people), and Danger, which is defined by EPA standards for combined pollution potential to indicate if the pollution levels are dangerous for human health. This data was acquired from the Rutgers library at the address https://rucore.libraries.rutgers.edu/rutgers-lib/30861/. Overall, I expect to find an association between pollution potentials and greater mortality rate.

library(tidyverse)
library(readr)
Fullset_Real_AirQ <- read_csv("Fullset_Real_AirQ.csv")
read_csv("Fullset_Real_AirQ.csv")

## # A tibble: 42 x 6
##    `City #`  DNGR   NOX   SOX  POPN  MORT
##       <dbl> <dbl> <dbl> <dbl> <dbl> <dbl>
##  1        1     0    15    59  3.34  922.
##  2        2     0    10    39  3.14  998.
##  3        3     0     6    33  3.21  962.
##  4        4     0     8    24  3.41  982.
##  5        5     1    38   206  3.44 1071.
##  6        6     1    32    72  3.45 1030.
##  7        7     0    32    62  3.23  935.
##  8        8     0     4     4  3.29  900.
##  9        9     1    12    37  3.31 1002.
## 10       10     0     7    20  3.36  912.
## #  with 32 more rows
…
